-------------------------------------------------------------------------------
Test set: com.mycompany.lab03.CalculationUnitTest
-------------------------------------------------------------------------------
Tests run: 1, Failures: 0, Errors: 0, Skipped: 0, Time elapsed: 0.05 s - in com.mycompany.lab03.CalculationUnitTest
