E:\study\P2\lab03\src\test\java\com\mycompany\lab03\test.java
E:\study\P2\lab03\src\test\java\com\mycompany\lab03\OXUnitTest.java
E:\study\P2\lab03\src\test\java\com\mycompany\lab03\CalculationUnitTest.java
